<svg xmlns="http://www.w3.org/2000/svg" viewBox="0 0 26.26 30">
    <path d="M25.74,21.1l-3-1.76,2.64-1.55a1,1,0,0,0-1-1.77l-3.64,2.15L15.18,15l5.48-3.17L24.3,14a1.07,1.07,0,0,0,.52.14,1,1,0,0,0,.88-.5,1,1,0,0,0-.36-1.41L22.7,10.66l3-1.76a1,1,0,0,0,.38-1.4,1,1,0,0,0-1.4-.37l-3,1.75,0-3.06a1,1,0,1,0-2,0l0,4.22-5.49,3.17V6.89l3.68-2.07a1,1,0,1,0-1-1.79L14.15,4.54V1A1,1,0,0,0,12.1,1V4.54L9.43,3a1,1,0,0,0-1,1.79L12.1,6.89v6.34L6.62,10.06l0-4.22a1,1,0,0,0-1-1h0a1,1,0,0,0-1,1l0,3.06-3-1.75a1,1,0,1,0-1,1.77l3.05,1.76L.92,12.21a1,1,0,0,0,.52,1.91A1.1,1.1,0,0,0,2,14L5.6,11.83,11.08,15,5.6,18.17,2,16a1,1,0,0,0-1,1.77l2.64,1.55-3,1.76A1,1,0,0,0,1,23a1,1,0,0,0,.52-.14l3-1.75,0,3.06a1,1,0,0,0,1,1h0a1,1,0,0,0,1-1l0-4.22,5.48-3.17v6.34L8.43,25.18a1,1,0,0,0,.5,1.92,1,1,0,0,0,.5-.13l2.67-1.51V29a1,1,0,0,0,2.05,0V25.46L16.82,27a1,1,0,0,0,.5.13,1,1,0,0,0,.51-1.92l-3.68-2.07V16.77l5.49,3.17,0,4.22a1,1,0,0,0,1,1h0a1,1,0,0,0,1-1l0-3.06,3,1.75a1,1,0,0,0,.51.14,1,1,0,0,0,.51-1.91Z"/>
</svg>
