{
    "general": {
        "brand": "Lancia",
        "is_prestige": false,
        "logo": "resources/brand-logo/large/logo_lancia.png",
        "wheel_logo": "resources/brand-logo/small/logo_lancia.png"
    },

     "view": {
        "design_intro": {
            "img_src": "resources/design-intro-view/generica/img.jpg"
        },

        "design": {
            "items": [{
                    "years": "1986-2018",
                    "desc_html": "<strong>32 years</strong> of continuous <strong>technological</strong> innovation on both <strong>track</strong> and <strong>road</strong>",
                    "car": "resources/design-view/generica/intro/intro.jpg"
                },

                {
                    "years": "2016",
                    "desc_html": "<strong>P Zero&trade; NEW Ferrari 488 </strong><br>Latest addition to the P Zero&trade; team <br>The most advanced high performing tyres developed together with the most demanding car manufacturers",
                    "car": "resources/design-view/generica/slide-1/car.jpg"
                },

                {
                    "years": "2012",
                    "desc_html": "<strong>P Zero&trade; TROFEO R <br>McLaren P1</strong> <br>An outstanding upgrade of the P Zero&trade; TROFEO <br> Even more performance, based on over 100 years of motorsport experience",
                    "car": "resources/design-view/generica/slide-2/car.jpg"
                },

                {
                    "years": "2011",
                    "desc_html": "<strong>P Zero&trade; <br> All the teams</strong> <br>F1<sup>&reg;</sup> debut as official Tyre Supplier with 6 different P Zero&trade; tyres",
                    "car": "resources/design-view/generica/slide-3/car.jpg"
                },

                {
                    "years": "2010",
                    "desc_html": "<strong>P Zero&trade; TROFEO <br>Porsche 911 GT3 RS </strong><br>The road legal tyre for track days <br>Dedicated to race enthusiasts",
                    "car": "resources/design-view/generica/slide-4/car.jpg"
                },

                {
                    "years": "2009",
                    "desc_html": "<strong>P Zero&trade; <br>Lamborghini </strong><br>Lamborghini Super Trofeo supplier ",
                    "car": "resources/design-view/generica/slide-5/car.jpg"
                },

                {
                    "years": "2007",
                    "desc_html": "<strong>P Zero&trade; <br>Lamborghini Gallardo </strong><br>New materials <br>New asymmetric construction <br>New technologies",
                    "car": "resources/design-view/generica/slide-6/car.jpg"
                },

                {
                    "years": "2005",
                    "desc_html": "<strong>P Zero&trade; <br>Maserati MC 12GT1 </strong><br>Vitaphone Racing Team (M.Bartels - T.Scheider - F.Babini - T.Biagi) <br>wins the FIA GT Championship",
                    "car": "resources/design-view/generica/slide-7/car.jpg"
                },

                {
                    "years": "2003",
                    "desc_html": "<strong>P Zero&trade; <br>Subaru Impreza WRC </strong><br>Petter Solberg wins the World Rally Championship",
                    "car": "resources/design-view/generica/slide-8/car.jpg"
                },

                {
                    "years": "2000",
                    "desc_html": "<strong>P Zero&trade; Rosso<br>Maserati Quattroporte </strong><br>Introducing sport tyres also on SUVs and luxury saloons",
                    "car": "resources/design-view/generica/slide-9/car.jpg"
                },

                {
                    "years": "1995",
                    "desc_html": "<strong>P Zero&trade; <br>Ferrari 333 SP</strong> <br>F.Velez - A.Evans - E.Van de Poele win the IMSA Sebring 12hrs",
                    "car": "resources/design-view/generica/slide-10/car.jpg"
                },

                {
                    "years": "1994",
                    "desc_html": "<strong>P Zero&trade; System <br>Ferrari F355</strong><br>First vehicle using different tread design between front and rear",
                    "car": "resources/design-view/generica/slide-11/car.jpg"
                },

                {
                    "years": "1989",
                    "desc_html": "<strong>P Zero&trade; <br> Several teams </strong><br> P Zero&trade; debut in F1<sup>&reg;</sup> equipping several teams",
                    "car": "resources/design-view/generica/slide-12/car.jpg"
                },

                {
                    "years": "1987",
                    "desc_html": "<strong>P Zero&trade; <br>Ferrari F40</strong><br>First 17&rdquo; original equipment application<br>First 35 series tyre<br> First ZR tyre<br>First front/rear with different sizes",
                    "car": "resources/design-view/generica/slide-13/car.jpg"
                },

                {
                    "years": "1986",
                    "desc_html": "<strong>P Zero&trade; <br>Lancia Delta S4</strong><br>Developed to compete in the Rally World Championship",
                    "car": "resources/design-view/generica/slide-14/car.jpg"
                }
            ]
        },

        "co_development": {
            "slide1": {
                "bg": "resources/codevelopement-view/generica/slide-1/bg.jpg"
            },
            "slide2": {
                "bg": "resources/codevelopement-view/generica/slide-2/bg.jpg"
            }
        },

        "tyres_range": {
            "slide1": "resources/tyres-range-view/generica/slide-1.png",
            "slide2": "resources/tyres-range-view/generica/slide-2.png"
        },

        "technology": {
            "slider": {
                "pncs": true,
                "sealinside": true,
                "runflat": true
            }
        }
    }
}
