<svg xmlns="http://www.w3.org/2000/svg" viewBox="0 0 724 724">
    <circle cx="362" cy="362" r="360" fill="none" stroke="#ffdc00" stroke-linecap="round" stroke-miterlimit="10" stroke-width="4" stroke-dasharray="0.1 32.21"/>
    <circle cx="362" cy="362" r="360" fill="none" stroke="#ffdc00" stroke-linecap="round" stroke-miterlimit="10" stroke-width="4" stroke-dasharray="0.1 32.21"/>
</svg>
